com\idm\scim\restjersey\DocumentationEndPoint.class
com\idm\scim\hibernate\dao\IUserDAO.class
com\idm\scim\hibernate\util\ConfigurationBean.class
com\idm\scim\ui\AddUser.class
com\idm\scim\restjersey\ScimClient.class
com\idm\scim\restjersey\ServiceProviderConfigEndpoint.class
com\idm\scim\restjersey\ScimServices.class
com\idm\scim\restjersey\GroupResourceEndPoint.class
com\idm\scim\ui\UpdateUser.class
com\idm\scim\hibernate\dao\UserDAOStub.class
com\idm\scim\restjersey\UserResourceEndpoint.class
com\idm\scim\restjersey\SchemaEndPoint.class
com\idm\scim\hibernate\model\User.class
com\idm\scim\service\UserService.class
com\idm\scim\ui\DeleteUser.class
com\idm\scim\hibernate\util\ConfigProps.class
com\idm\scim\ui\SearchUser.class
com\idm\scim\restjersey\ServiceUtils.class
com\idm\scim\ui\TestHibernate.class
com\idm\scim\hibernate\dao\UserDAO.class
com\idm\scim\ui\LoginUser.class
com\idm\scim\hibernate\util\HibernateUtil.class
com\idm\scim\dto\Credentials.class
com\idm\scim\restjersey\AuthenticationFilter.class
com\idm\scim\dto\User.class
com\idm\scim\restjersey\Secured.class
com\idm\scim\restjersey\AuthenticationEndpoint.class
com\idm\scim\service\IUserService.class
com\idm\scim\hibernate\util\ConfigProperties.class
com\idm\scim\restjersey\ResourceTypesEndPoint.class
com\idm\scim\authcodeserver\config\OAuth2AuthorizationServer.class
